Exploratory Data Analysis
…
## put this in plotly with fill as zipcode and restaurant type...?

54 restaurants in nyc from rest_inspec dataframe –> are they all
in menustat?

final_cal_df %>% 
  filter(str_detect(restaurant, "[Mm][Cc][Dd][Oo][Nn][Aa][Ll][Dd]'[Ss]"))

## # A tibble: 4,074 × 48
## # Groups:   rest_type [1]
##    resta…¹ rest_…²  year menu_…³ food_…⁴ item_…⁵ item_…⁶ servi…⁷ servi…⁸ servi…⁹
##    <chr>   <chr>   <dbl>   <dbl> <chr>   <chr>   <chr>     <dbl> <chr>   <chr>  
##  1 McDona… fast f…  2008  106861 Bevera… Chocol… Chocol…      11 fl oz*  <NA>   
##  2 McDona… fast f…  2008  106862 Bevera… Chocol… Chocol…      20 fl oz*  <NA>   
##  3 McDona… fast f…  2008  106863 Bevera… Strawb… Strawb…      11 fl oz*  <NA>   
##  4 McDona… fast f…  2008  106864 Bevera… Vanill… Vanill…      11 fl oz*  <NA>   
##  5 McDona… fast f…  2008  106865 Bevera… Vanill… Vanill…      20 fl oz*  <NA>   
##  6 McDona… fast f…  2008  106866 Bevera… POWERa… POWERa…      12 fl oz   <NA>   
##  7 McDona… fast f…  2008  106867 Bevera… Iced C… Iced C…      16 fl oz   <NA>   
##  8 McDona… fast f…  2008  106868 Bevera… Iced C… Iced C…      22 fl oz   <NA>   
##  9 McDona… fast f…  2008  106869 Bevera… Iced C… Iced C…      32 fl oz   <NA>   
## 10 McDona… fast f…  2008  106870 Bevera… Iced C… Iced C…      16 fl oz   <NA>   
## # … with 4,064 more rows, 38 more variables: serving_size_household <chr>,
## #   calories <dbl>, total_fat <dbl>, saturated_fat <dbl>, trans_fat <dbl>,
## #   cholesterol <dbl>, sodium <dbl>, potassium <dbl>, carbohydrates <dbl>,
## #   protein <dbl>, sugar <dbl>, dietary_fiber <dbl>, calories_100g <dbl>,
## #   total_fat_100g <dbl>, saturated_fat_100g <dbl>, trans_fat_100g <dbl>,
## #   cholesterol_100g <dbl>, sodium_100g <dbl>, potassium_100g <dbl>,
## #   carbohydrates_100g <dbl>, protein_100g <dbl>, sugar_100g <dbl>, …
…
## # A tibble: 87,241 × 48
## # Groups:   rest_type [3]
##    resta…¹ rest_…²  year menu_…³ food_…⁴ item_…⁵ item_…⁶ servi…⁷ servi…⁸ servi…⁹
##    <chr>   <chr>   <dbl>   <dbl> <chr>   <chr>   <chr>     <dbl> <chr>   <chr>  
##  1 Subway  fast f…  2008    1009 Sandwi… "Weste… "Weste…     229 g       <NA>   
##  2 Starbu… bevera…  2008  101776 Bevera… "Vanil… "Vanil…      16 fl oz   <NA>   
##  3 Taco B… fast f…  2008  102444 Toppin… "Guaca… "Guaca…      43 g       <NA>   
##  4 Tim Ho… fast f…  2008  102554 Baked … "Cranb… "Cranb…      NA <NA>    <NA>   
##  5 Tim Ho… fast f…  2008  102757 Bevera… "Iced … "Iced …      12 fl oz   <NA>   
##  6 Arby's  fast f…  2008   10304 Sandwi… "Bacon… "Bacon…     158 g       <NA>   
##  7 Arby's  fast f…  2008   10305 Sandwi… "Bacon… "Bacon…     133 g       <NA>   
##  8 Arby's  fast f…  2008   10306 Sandwi… "Bacon… "Bacon…     173 g       <NA>   
##  9 Arby's  fast f…  2008   10307 Sandwi… "Bacon… "Bacon…     193 g       <NA>   
## 10 Arby's  fast f…  2008   10323 Sandwi… "Ham, … "Ham, …     195 g       <NA>   
## # … with 87,231 more rows, 38 more variables: serving_size_household <chr>,
## #   calories <dbl>, total_fat <dbl>, saturated_fat <dbl>, trans_fat <dbl>,
## #   cholesterol <dbl>, sodium <dbl>, potassium <dbl>, carbohydrates <dbl>,
## #   protein <dbl>, sugar <dbl>, dietary_fiber <dbl>, calories_100g <dbl>,
## #   total_fat_100g <dbl>, saturated_fat_100g <dbl>, trans_fat_100g <dbl>,
## #   cholesterol_100g <dbl>, sodium_100g <dbl>, potassium_100g <dbl>,
## #   carbohydrates_100g <dbl>, protein_100g <dbl>, sugar_100g <dbl>, …
