Statistical Analysis
…
Statistical Analysis

menustat_df = read_csv("data/menustat_combined.csv")
rest_locations = read_csv("data/restaurant_location.csv")

library(tidyverse)
library(tidycensus)

rest_locations %>%
  select(restaurant, rest_type) %>%
  arrange(rest_type) %>%
  distinct #59 restaurants

## # A tibble: 59 × 2
##    restaurant             rest_type        
##    <chr>                  <chr>            
##  1 STARBUCKS COFFEE       beverages_dessert
##  2 TROPICAL SMOOTHIE CAFE beverages_dessert
##  3 KRISPY KREME           beverages_dessert
##  4 DUNKIN’                beverages_dessert
##  5 JAMBA JUICE            beverages_dessert
##  6 BASKIN ROBBINS         beverages_dessert
##  7 MCDONALD'S             fast food        
##  8 POPEYES                fast food        
##  9 KFC                    fast food        
## 10 CHIPOTLE MEXICAN GRILL fast food        
## # … with 49 more rows

menustat_df %>%
  select(restaurant, rest_type) %>%
  arrange(rest_type) %>%
  distinct #59 restaurants

## # A tibble: 106 × 2
##    restaurant             rest_type        
##    <chr>                  <chr>            
##  1 Starbucks              beverages_dessert
##  2 Baskin Robbins         beverages_dessert
##  3 Dunkin' Donuts         beverages_dessert
##  4 Jamba Juice            beverages_dessert
##  5 Krispy Kreme           beverages_dessert
##  6 Tropical Smoothie Café beverages_dessert
##  7 7 Eleven               convenience      
##  8 Sheetz                 convenience      
##  9 Wawa                   convenience      
## 10 Casey's General Store  convenience      
## # … with 96 more rows

menustat_df %>%
  select(restaurant, rest_type) %>%
  arrange(rest_type) %>%
  distinct #106 restaurants

## # A tibble: 106 × 2
##    restaurant             rest_type        
##    <chr>                  <chr>            
##  1 Starbucks              beverages_dessert
##  2 Baskin Robbins         beverages_dessert
##  3 Dunkin' Donuts         beverages_dessert
##  4 Jamba Juice            beverages_dessert
##  5 Krispy Kreme           beverages_dessert
##  6 Tropical Smoothie Café beverages_dessert
##  7 7 Eleven               convenience      
##  8 Sheetz                 convenience      
##  9 Wawa                   convenience      
## 10 Casey's General Store  convenience      
## # … with 96 more rows
…
